{
  "page": 7,
  "per_page": 8,
  "total": 12,
  "total_pages": 2,
  "data": [
    {
      "id": 7,
      "email": "test@test",
      "first_name": "M",
      "last_name": "M",
      "avatar": "link"
    }
  ],
  "support": {
    "url": "link",
    "text": "text"
  }
}